module MyAPI

go 1.16

require (
	github.com/dgrijalva/jwt-go v3.2.0+incompatible // indirect
	github.com/joho/godotenv v1.4.0
	github.com/kataras/iris/v12 v12.2.0-alpha2.0.20210404172421-ce6c455601af // indirect
	github.com/lib/pq v1.10.0 // indirect
	golang.org/x/crypto v0.0.0-20210322153248-0c34fe9e7dc2 // indirect
	golang.org/x/net v0.0.0-20210410081132-afb366fc7cd1 // indirect
	xorm.io/xorm v1.0.7 // indirect
)
